Functional Programming with purrr
…
set.seed(random_seed)
cv_folds <- createFolds(ytrain, 
                        k = 10, 
                        list = FALSE)
head(cv_folds)

## [1] 10  5  8  3 10  9

And then within the training data we will use cross-validation to select the best values for our hyperparameters. This step identifies which rows of the dataset will appear in which folds.

Model Training

tibble(alpha = seq(0, 1, 0.05))

## # A tibble: 21 x 1
##    alpha
##    <dbl>
##  1  0   
##  2  0.05
##  3  0.1 
##  4  0.15
##  5  0.2 
##  6  0.25
##  7  0.3 
##  8  0.35
##  9  0.4 
## 10  0.45
## #  with 11 more rows
…
Model Training

trained_models <- tibble(
    alpha = seq(0, 1, 0.05)
) %>% 
    mutate(model = map(alpha, 
                       ~ cv.glmnet(Xtrain, 
                                   ytrain, 
                                   family = "binomial", 
                                   foldid = cv_folds, 
                                   alpha = .x)))
trained_models

## # A tibble: 21 x 2
##    alpha model          
##    <dbl> <list>         
##  1  0    <S3: cv.glmnet>
##  2  0.05 <S3: cv.glmnet>
##  3  0.1  <S3: cv.glmnet>
##  4  0.15 <S3: cv.glmnet>
##  5  0.2  <S3: cv.glmnet>
##  6  0.25 <S3: cv.glmnet>
##  7  0.3  <S3: cv.glmnet>
##  8  0.35 <S3: cv.glmnet>
##  9  0.4  <S3: cv.glmnet>
## 10  0.45 <S3: cv.glmnet>
## #  with 11 more rows
…
Build up the results step by step

c("lambda.min", "lambda.1se") %>% 
    map(~ trained_models)

Start by piping the vector into map(). The function starts off with the tibble of trained models.

Training Results

c("lambda.min", "lambda.1se") %>% 
    map(~ trained_models %>% 
            mutate(lambda = .x))

## [[1]]
## # A tibble: 21 x 3
##    alpha model           lambda    
##    <dbl> <list>          <chr>     
##  1  0    <S3: cv.glmnet> lambda.min
##  2  0.05 <S3: cv.glmnet> lambda.min
##  3  0.1  <S3: cv.glmnet> lambda.min
##  4  0.15 <S3: cv.glmnet> lambda.min
##  5  0.2  <S3: cv.glmnet> lambda.min
##  6  0.25 <S3: cv.glmnet> lambda.min
##  7  0.3  <S3: cv.glmnet> lambda.min
##  8  0.35 <S3: cv.glmnet> lambda.min
##  9  0.4  <S3: cv.glmnet> lambda.min
## 10  0.45 <S3: cv.glmnet> lambda.min
## #  with 11 more rows
## 
## [[2]]
## # A tibble: 21 x 3
##    alpha model           lambda    
##    <dbl> <list>          <chr>     
##  1  0    <S3: cv.glmnet> lambda.1se
##  2  0.05 <S3: cv.glmnet> lambda.1se
##  3  0.1  <S3: cv.glmnet> lambda.1se
##  4  0.15 <S3: cv.glmnet> lambda.1se
##  5  0.2  <S3: cv.glmnet> lambda.1se
##  6  0.25 <S3: cv.glmnet> lambda.1se
##  7  0.3  <S3: cv.glmnet> lambda.1se
##  8  0.35 <S3: cv.glmnet> lambda.1se
##  9  0.4  <S3: cv.glmnet> lambda.1se
## 10  0.45 <S3: cv.glmnet> lambda.1se
## #  with 11 more rows

Note that the output is a list of tibbles, which we dont really want.

Training Results

c("lambda.min", "lambda.1se") %>% 
    map_dfr(~ trained_models %>% 
                mutate(lambda = .x))

## # A tibble: 42 x 3
##    alpha model           lambda    
##    <dbl> <list>          <chr>     
##  1  0    <S3: cv.glmnet> lambda.min
##  2  0.05 <S3: cv.glmnet> lambda.min
##  3  0.1  <S3: cv.glmnet> lambda.min
##  4  0.15 <S3: cv.glmnet> lambda.min
##  5  0.2  <S3: cv.glmnet> lambda.min
##  6  0.25 <S3: cv.glmnet> lambda.min
##  7  0.3  <S3: cv.glmnet> lambda.min
##  8  0.35 <S3: cv.glmnet> lambda.min
##  9  0.4  <S3: cv.glmnet> lambda.min
## 10  0.45 <S3: cv.glmnet> lambda.min
## #  with 32 more rows
…
Training Results

c("lambda.min", "lambda.1se") %>% 
    map_dfr(
        ~ trained_models %>% 
            mutate(lambda = .x) %>% 
            mutate(train_preds = map2(model, 
                                      lambda, 
                                      ~ predict(.x, 
                                                newx = Xtrain, 
                                                type = "response", 
                                                s = .y)))
    )

## # A tibble: 42 x 4
##    alpha model           lambda     train_preds    
##    <dbl> <list>          <chr>      <list>         
##  1  0    <S3: cv.glmnet> lambda.min <dbl [800  1]>
##  2  0.05 <S3: cv.glmnet> lambda.min <dbl [800  1]>
##  3  0.1  <S3: cv.glmnet> lambda.min <dbl [800  1]>
##  4  0.15 <S3: cv.glmnet> lambda.min <dbl [800  1]>
##  5  0.2  <S3: cv.glmnet> lambda.min <dbl [800  1]>
##  6  0.25 <S3: cv.glmnet> lambda.min <dbl [800  1]>
##  7  0.3  <S3: cv.glmnet> lambda.min <dbl [800  1]>
##  8  0.35 <S3: cv.glmnet> lambda.min <dbl [800  1]>
##  9  0.4  <S3: cv.glmnet> lambda.min <dbl [800  1]>
## 10  0.45 <S3: cv.glmnet> lambda.min <dbl [800  1]>
## #  with 32 more rows
…
Then just map that function on to the predictions. See at the end I can pass the extra argument for the actual values as an extra named argument. In this case its easier than using a mapper.

Training Results

train_results

## # A tibble: 42 x 5
##    alpha model           lambda     train_preds     train_dev
##    <dbl> <list>          <chr>      <list>              <dbl>
##  1  0    <S3: cv.glmnet> lambda.min <dbl [800  1]>     0.920
##  2  0.05 <S3: cv.glmnet> lambda.min <dbl [800  1]>     0.918
##  3  0.1  <S3: cv.glmnet> lambda.min <dbl [800  1]>     0.919
##  4  0.15 <S3: cv.glmnet> lambda.min <dbl [800  1]>     0.920
##  5  0.2  <S3: cv.glmnet> lambda.min <dbl [800  1]>     0.919
##  6  0.25 <S3: cv.glmnet> lambda.min <dbl [800  1]>     0.921
##  7  0.3  <S3: cv.glmnet> lambda.min <dbl [800  1]>     0.921
##  8  0.35 <S3: cv.glmnet> lambda.min <dbl [800  1]>     0.922
##  9  0.4  <S3: cv.glmnet> lambda.min <dbl [800  1]>     0.931
## 10  0.45 <S3: cv.glmnet> lambda.min <dbl [800  1]>     0.938
## #  with 32 more rows
…
